NOMS					PSEUDONYME BITBUCKET
====================================================================
Richard Cardin				RichardCQC
Alexandre Laplante-Turpin		Alx_andre
Nicolas Courcelle			Kawless
Eliza Zhang				EliZ